{
    // Use IntelliSense to learn about possible attributes.
    // Hover to view descriptions of existing attributes.
    // For more information, visit: https://go.microsoft.com/fwlink/?linkid=830387
    "version": "0.2.0",
    "configurations": [
        {
            "name": "Python: run current file",
            "type": "python",
            "request": "launch",
            "program": "${file}",
            "pythonPath": "${config:python.pythonPath}",
            "cwd": "${workspaceFolder}",
            "debugStdLib": true,
            "envFile": "${workspaceFolder}/.env",
        },
        {
            "name": "Python: run app.py",
            "type": "python",
            "request": "launch",
            "program": "${workspaceFolder}/app.py",
            "pythonPath": "${config:python.pythonPath}",
            "cwd": "${workspaceFolder}",
            "debugStdLib": true,
            "envFile": "${workspaceFolder}/.env",
        },
        {
            "name": "Python: debug all unit tests",
            "type": "python",
            "request": "launch",
            "pythonPath": "${config:python.pythonPath}",
            "cwd": "${workspaceFolder}",
            "debugStdLib": true,
            "envFile": "${workspaceFolder}/.env",
            "args": [
                "-m",
                "unittest",
                "discover",
                "-s",
                "./tests",
                "-p",
                "*tests.py"
            ]
        },
        {
            "name" : "printargs",
            "type": "python",
            "request": "launch",
            "pythonPath": "${config:python.pythonPath}",
            "cwd": "${workspaceFolder}", 
            "program": "${file}",
            "args":[
                "${workspaceFolder}",
                "${config:terminal.integrated.shellArgs.osx}"
            ]
        }
    ]
}